{
    "disabled": false,
    "bindings": [
      {
        "name": "Handler",
        "type": "timerTrigger",
        "direction": "in",
        "schedule": "0 */5 * * * *"
      }
    ],
    "scriptFile": "../ObudaiFunctions.dll",
    "entryPoint": "ObudaiFunctions.TradingStrategyTrigger.Handler.Run"
  }